lab_src1_sim/simx.vcd
$date
	Wed Dec 21 21:57:33 2022
$end
$version
	GTKWave Analyzer v3.3.103 (w)1999-2019 BSI
$end
$timescale
	1ps
$end
$scope module scr1_top_tb_ahb $end
$scope module i_memory_tb $end
$var wire 32 " SCR1_MEM_POWER_SIZE[31:0] $end
$var wire 1 # clk $end
$var wire 32 $ dmem_ahb_addr[31:0] $end
$var wire 4 % dmem_ahb_be[3:0] $end
$var wire 3 & dmem_ahb_size[2:0] $end
$var wire 1 ' dmem_ahb_state $end
$var wire 1 ( dmem_ahb_wr $end
$var wire 4 ) dmem_be[3:0] $end
$var wire 32 * dmem_haddr[31:0] $end
$var wire 32 + dmem_hrdata[31:0] $end
$var wire 32 , dmem_hrdata_l[31:0] $end
$var wire 1 - dmem_hready $end
$var wire 1 . dmem_hresp $end
$var wire 3 / dmem_hsize[2:0] $end
$var wire 2 0 dmem_htrans[1:0] $end
$var wire 32 1 dmem_hwdata[31:0] $end
$var wire 1 2 dmem_hwrite $end
$var wire 1 3 dmem_req_ack $end
$var wire 1 4 dmem_req_ack_nc $end
$var wire 1 5 dmem_req_ack_rnd $end
$var wire 32 6 dmem_req_ack_stall[31:0] $end
$var wire 32 7 dmem_req_ack_stall_in[31:0] $end
$var wire 4 8 dmem_wr_hazard[3:0] $end
$var wire 32 9 imem_ahb_addr[31:0] $end
$var wire 1 : imem_ahb_state $end
$var wire 4 ; imem_be[3:0] $end
$var wire 32 < imem_haddr[31:0] $end
$var wire 32 = imem_hrdata[31:0] $end
$var wire 32 > imem_hrdata_l[31:0] $end
$var wire 1 ? imem_hready $end
$var wire 1 @ imem_hresp $end
$var wire 3 A imem_hsize[2:0] $end
$var wire 2 B imem_htrans[1:0] $end
$var wire 1 C imem_req_ack $end
$var wire 1 D imem_req_ack_nc $end
$var wire 1 E imem_req_ack_rnd $end
$var wire 32 F imem_req_ack_stall[31:0] $end
$var wire 32 G imem_req_ack_stall_in[31:0] $end
$var wire 4 H imem_wr_hazard[3:0] $end
$var wire 16 I irq_lines[15:0] $end
$var wire 16 J irq_lines_reg[15:0] $end
$var wire 32 K mirage_adrhi[31:0] $end
$var wire 32 L mirage_adrlo[31:0] $end
$var wire 1 M mirage_en $end
$var wire 1 N mirage_rangeen $end
$var wire 1 O rst_n $end
$var wire 1 P soft_irq $end
$var wire 1 Q soft_irq_reg $end
$var wire 256 R test_file[255:0] $end
$var wire 1 S test_file_init $end
$upscope $end
$upscope $end
$enddefinitions $end
#1
$dumpvars
0@
0O
04
b0 B
b0 %
b10100 "
0#
b10 A
b1 )
b0 1
b0 F
0D
02
0C
0E
b0 *
03
b0 8
b0 J
b0 &
b11111111111111111111111111111111 G
b0 H
b0 I
b0 +
05
0N
b11111111111111111111111111111111 L
b0 6
b11111111111111111111111111111111 K
0M
b0 ,
b11111111111111111111111111111111 7
1?
1.
0Q
0'
0P
b0 $
b0 9
0-
0S
b0 R
0:
b0 0
0(
b1111 ;
b0 <
b0 >
b0 /
b0 =
$end
#2
1#
1C
b11111111111111111111111111111111 F
13
b11111111111111111111111111111111 6
1S
1-
b11011010110000101011111011001100110010101110100011000110110100000101110011010000110010101111000 R
#7
0#
#12
1#
#17
0#
#22
1#
#27
0#
#32
1#
#37
0#
#42
1#
1O
#47
0#
#52
1#
#57
0#
#62
1#
#67
0#
#72
1#
#77
0#
#82
1#
#87
0#
#92
1#
#97
0#
#102
1#
#107
0#
#112
1#
b10 B
b1000000000 <
#117
0#
#122
1#
b1000000100 <
b110100001000000010011101110011 =
b1000000000 9
b110100001000000010011101110011 >
1:
#127
0#
#132
1#
b1000001000 <
b10011000110100011110100001 >
b1000000100 9
b10011000110100011110100001 =
#137
0#
#142
1#
b1000111101001010000010011110111 =
b1000001000 9
b0 B
b1000111101001010000010011110111 >
b1000001100 <
#147
0#
#152
1#
0:
b0 >
b0 =
b10 B
b0 9
#157
0#
#162
1#
b1000001100 9
b1000010000 <
1:
b10111101110000111101100011 =
b10111101110000111101100011 >
#167
0#
#172
1#
b1100011000110100011110101101 >
b1000010000 9
b1100011000110100011110101101 =
b1000010100 <
#177
0#
#182
1#
b1000011000 <
b1000001101110000001011110111 >
b1000001101110000001011110111 =
b0 B
b1000010100 9
#187
0#
#192
1#
b0 9
b10 B
b0 >
b0 =
0:
#197
0#
#202
1#
1:
b1000011100 <
b1000100101111111000000000000 =
b1000011000 9
b1000100101111111000000000000 >
b0 B
#207
0#
#212
1#
b10 B
0:
b0 >
b0 9
b0 =
#217
0#
#222
1#
b10001000100100110000000000000000 =
b0 B
b1000011100 9
b1000100000 <
b10001000100100110000000000000000 >
1:
#227
0#
#232
1#
0:
b0 =
b0 >
b10 B
b0 9
#237
0#
#242
1#
b1000100000 9
1:
b0 B
b10000111100000110101011001101000 =
b10000111100000110101011001101000 >
b1000100100 <
#247
0#
#252
1#
b0 9
b0 >
0:
b0 =
b10 B
#257
0#
#262
1#
b0 B
b1000101000 <
b11000111100100010000000000001000 =
b1000100100 9
1:
b11000111100100010000000000001000 >
#267
0#
#272
1#
b0 >
b10 B
0:
b0 9
b0 =
#277
0#
#282
1#
b111110000010000000100011 =
b111110000010000000100011 >
b11110000000 *
b1000101000 9
b1000101100 <
1:
b0 B
b10 0
#287
0#
#292
1#
b0 0
b0 >
b1 %
b1101101 ,
b0 =
b1101101 +
b10 B
b0 *
0.
1'
b11110000000 $
0:
b0 9
#297
0#
#302
1#
b1000101100 9
b11110000011011110000100010000101 =
b11110000011011110000100010000101 >
1:
1.
b0 +
b0 $
0'
b1000110000 <
#307
0#
#312
1#
b1000110100 <
b111000101111111111101011111 =
b1000110000 9
b10 0
b1111 )
12
b111000101111111111101011111 >
b0 B
b11110000000000000000000000000000 *
b10 /
#317
0#
#322
1#
b0 /
b1 )
b0 0
b0 9
b1101101 1
b0 =
b10 &
b1111 %
b0 *
1'
0:
b0 >
02
b11110000000000000000000000000000 $
0.
1(
#327
0#
#332
1#
0(
b0 &
1.
b10 B
0'
b0 $
#337
0#
#342
1#
b1000110100 9
b1000100000 <
b111000100110000000000000000 =
1:
b111000100110000000000000000 >
#347
0#
#352
1#
b10000111100000110101011001101000 >
b1000100100 <
b1000100000 9
b10000111100000110101011001101000 =
#357
0#
#362
1#
b11000111100100010000000000001000 =
b1000101000 <
b11000111100100010000000000001000 >
b1000100100 9
b0 B
#367
0#
#372
1#
b10 B
b0 =
b0 9
b0 >
0:
#377
0#
#382
1#
1:
b1000101100 <
b10 0
b10 )
b0 B
b111110000010000000100011 >
b11110000001 *
b1000101000 9
b111110000010000000100011 =
#387
0#
#392
1#
b0 =
b1 )
b11110000001 $
0:
b0 0
b110100100000000 ,
b0 1
b0 9
b10 B
0.
b10 %
1'
b0 *
b0 >
b110100100000000 +
#397
0#
#402
1#
b0 +
b1000110000 <
b11110000011011110000100010000101 =
b0 $
1:
b11110000011011110000100010000101 >
1.
b1000101100 9
0'
#407
0#
#412
1#
b1111 )
b10 /
b111000101111111111101011111 =
b10 0
b1000110100 <
b1000110000 9
b111000101111111111101011111 >
b0 B
b11110000000000000000000000000000 *
12
#417
0#
#422
1#
02
b0 0
1(
1'
b11110000000000000000000000000000 $
b0 =
b1 )
b0 /
b0 *
b0 9
0:
b1101001 1
b10 &
0.
b1111 %
b0 >
#427
0#
#432
1#
0(
0'
b0 $
1.
b10 B
b0 &
#437
0#
#442
1#
b111000100110000000000000000 >
b111000100110000000000000000 =
1:
b1000110100 9
b1000100000 <
#447
0#
#452
1#
b1000100100 <
b10000111100000110101011001101000 >
b1000100000 9
b10000111100000110101011001101000 =
#457
0#
#462
1#
b11000111100100010000000000001000 =
b1000101000 <
b1000100100 9
b11000111100100010000000000001000 >
b0 B
#467
0#
#472
1#
b10 B
b0 =
b0 >
b0 9
0:
#477
0#
#482
1#
1:
b100 )
b10 0
b0 B
b1000101000 9
b111110000010000000100011 >
b11110000010 *
b111110000010000000100011 =
b1000101100 <
#487
0#
#492
1#
b0 0
0:
b11100110000000000000000 +
b11100110000000000000000 ,
b1 )
1'
b0 =
b0 *
b10 B
b0 >
b0 9
0.
b100 %
b0 1
b11110000010 $
#497
0#
#502
1#
b0 $
1:
b1000110000 <
b0 +
0'
b11110000011011110000100010000101 =
b1000101100 9
b11110000011011110000100010000101 >
1.
#507
0#
#512
1#
b1000110100 <
b1111 )
12
b10 0
b111000101111111111101011111 >
b0 B
b10 /
b11110000000000000000000000000000 *
b1000110000 9
b111000101111111111101011111 =
#517
0#
#522
1#
b0 =
02
b10 &
b1 )
0.
b11110000000000000000000000000000 $
0:
1(
b0 9
b0 0
b0 >
b1110011 1
b0 *
1'
b1111 %
b0 /
#527
0#
#532
1#
b0 &
b0 $
1.
b10 B
0(
0'
#537
0#
#542
1#
1:
b111000100110000000000000000 =
b1000100000 <
b1000110100 9
b111000100110000000000000000 >
#547
0#
#552
1#
b10000111100000110101011001101000 >
b10000111100000110101011001101000 =
b1000100000 9
b1000100100 <
#557
0#
#562
1#
b1000101000 <
b11000111100100010000000000001000 >
b1000100100 9
b11000111100100010000000000001000 =
b0 B
#567
0#
#572
1#
b10 B
0:
b0 =
b0 9
b0 >
#577
0#
#582
1#
b111110000010000000100011 >
b0 B
b1000 )
b1000101100 <
b1000101000 9
b10 0
b111110000010000000100011 =
1:
b11110000011 *
#587
0#
#592
1#
b0 *
b1 )
b10 B
b0 >
1'
b11110000011 $
b1100001000000000000000000000000 ,
0:
b1100001000000000000000000000000 +
0.
b1000 %
b0 =
b0 9
b0 1
b0 0
#597
0#
#602
1#
b0 $
0'
b11110000011011110000100010000101 >
b0 +
b1000110000 <
1:
b1000101100 9
1.
b11110000011011110000100010000101 =
#607
0#
#612
1#
b111000101111111111101011111 =
b10 0
b0 B
b1111 )
b10 /
12
b11110000000000000000000000000000 *
b111000101111111111101011111 >
b1000110000 9
b1000110100 <
#617
0#
#622
1#
02
b0 /
b1 )
b0 0
b0 =
1'
b11110000000000000000000000000000 $
b10 &
b0 9
0.
b1100001 1
1(
b0 >
b0 *
b1111 %
0:
#627
0#
#632
1#
b0 $
b10 B
0'
1.
b0 &
0(
#637
0#
#642
1#
b1000100000 <
1:
b111000100110000000000000000 =
b1000110100 9
b111000100110000000000000000 >
#647
0#
#652
1#
b10000111100000110101011001101000 >
b1000100100 <
b1000100000 9
b10000111100000110101011001101000 =
#657
0#
#662
1#
b11000111100100010000000000001000 =
b0 B
b11000111100100010000000000001000 >
b1000100100 9
b1000101000 <
#667
0#
#672
1#
b10 B
0:
b0 =
b0 9
b0 >
#677
0#
#682
1#
b111110000010000000100011 >
1:
b1000101100 <
b0 B
b10 0
b1000101000 9
b111110000010000000100011 =
b11110000100 *
#687
0#
#692
1#
b0 *
b10 B
b0 >
0:
b11110000100 $
b0 =
1'
b1 %
b1101100 +
b1101100 ,
b0 9
b0 0
b0 1
0.
#697
0#
#702
1#
1.
1:
b11110000011011110000100010000101 >
b1000110000 <
b0 $
0'
b11110000011011110000100010000101 =
b0 +
b1000101100 9
#707
0#
#712
1#
b1000110000 9
b111000101111111111101011111 >
b11110000000000000000000000000000 *
b10 /
12
b1111 )
b0 B
b1000110100 <
b111000101111111111101011111 =
b10 0
#717
0#
#722
1#
b0 0
b1 )
b0 /
b0 *
b0 9
1(
b0 >
02
0.
0:
b0 =
b1111 %
b10 &
b11110000000000000000000000000000 $
b1101100 1
1'
#727
0#
#732
1#
0'
1.
0(
b0 &
b0 $
b10 B
#737
0#
#742
1#
b1000110100 9
b111000100110000000000000000 >
1:
b111000100110000000000000000 =
b1000100000 <
#747
0#
#752
1#
b1000100100 <
b1000100000 9
b10000111100000110101011001101000 =
b10000111100000110101011001101000 >
#757
0#
#762
1#
b11000111100100010000000000001000 >
b0 B
b1000101000 <
b11000111100100010000000000001000 =
b1000100100 9
#767
0#
#772
1#
b0 9
b10 B
b0 >
b0 =
0:
#777
0#
#782
1#
1:
b0 B
b11110000101 *
b10 )
b10 0
b1000101000 9
b111110000010000000100011 =
b1000101100 <
b111110000010000000100011 >
#787
0#
#792
1#
b0 >
b0 0
0.
b0 *
b10 B
0:
b1 )
1'
b0 9
b0 1
b110100100000000 +
b11110000101 $
b10 %
b0 =
b110100100000000 ,
#797
0#
#802
1#
1.
b11110000011011110000100010000101 >
1:
b11110000011011110000100010000101 =
b0 +
0'
b1000110000 <
b1000101100 9
b0 $
#807
0#
#812
1#
b111000101111111111101011111 >
b11110000000000000000000000000000 *
b1111 )
b10 0
b10 /
12
b0 B
b1000110000 9
b111000101111111111101011111 =
b1000110100 <
#817
0#
#822
1#
02
b11110000000000000000000000000000 $
b1 )
b0 *
b0 >
b0 /
0.
b0 0
b0 =
1'
0:
b1101001 1
b0 9
b1111 %
1(
b10 &
#827
0#
#832
1#
b0 &
1.
b0 $
0(
0'
b10 B
#837
0#
#842
1#
b1000100000 <
b111000100110000000000000000 >
b111000100110000000000000000 =
1:
b1000110100 9
#847
0#
#852
1#
b1000100000 9
b1000100100 <
b10000111100000110101011001101000 =
b10000111100000110101011001101000 >
#857
0#
#862
1#
b11000111100100010000000000001000 >
b0 B
b1000100100 9
b11000111100100010000000000001000 =
b1000101000 <
#867
0#
#872
1#
b10 B
b0 >
b0 =
b0 9
0:
#877
0#
#882
1#
1:
b1000101100 <
b100 )
b0 B
b11110000110 *
b1000101000 9
b10 0
b111110000010000000100011 =
b111110000010000000100011 >
#887
0#
#892
1#
b0 >
b10 B
0.
0:
b11001110000000000000000 ,
b1 )
b0 =
b0 *
1'
b11110000110 $
b11001110000000000000000 +
b0 0
b100 %
b0 1
b0 9
#897
0#
#902
1#
b1000101100 9
1.
b11110000011011110000100010000101 >
1:
b1000110000 <
0'
b11110000011011110000100010000101 =
b0 +
b0 $
#907
0#
#912
1#
b1000110000 9
b0 B
12
b111000101111111111101011111 >
b10 /
b1000110100 <
b1111 )
b11110000000000000000000000000000 *
b111000101111111111101011111 =
b10 0
#917
0#
#922
1#
b0 0
b0 >
b0 9
0:
b10 &
b11110000000000000000000000000000 $
02
0.
b0 =
b1100111 1
b0 /
1(
b0 *
1'
b1111 %
b1 )
#927
0#
#932
1#
b0 $
b0 &
b10 B
1.
0'
0(
#937
0#
#942
1#
1:
b1000110100 9
b111000100110000000000000000 >
b1000100000 <
b111000100110000000000000000 =
#947
0#
#952
1#
b10000111100000110101011001101000 =
b1000100000 9
b1000100100 <
b10000111100000110101011001101000 >
#957
0#
#962
1#
b11000111100100010000000000001000 >
b11000111100100010000000000001000 =
b1000101000 <
b1000100100 9
b0 B
#967
0#
#972
1#
b10 B
b0 >
0:
b0 9
b0 =
#977
0#
#982
1#
b111110000010000000100011 =
b111110000010000000100011 >
b0 B
b10 0
b1000 )
b1000101000 9
1:
b1000101100 <
b11110000111 *
#987
0#
#992
1#
b0 *
b0 0
b1101110000000000000000000000000 ,
b0 >
b0 =
b10 B
b11110000111 $
b1 )
b1000 %
b1101110000000000000000000000000 +
1'
b0 1
0:
0.
b0 9
#997
0#
#1002
1#
b1000101100 9
b11110000011011110000100010000101 =
b11110000011011110000100010000101 >
1.
b0 +
b0 $
b1000110000 <
1:
0'
#1007
0#
#1012
1#
b0 B
b10 0
b11110000000000000000000000000000 *
12
b111000101111111111101011111 =
b1000110000 9
b111000101111111111101011111 >
b1111 )
b1000110100 <
b10 /
#1017
0#
#1022
1#
b0 /
b0 =
b0 0
1'
1(
02
b10 &
b0 *
b0 9
0.
0:
b1111 %
b1 )
b0 >
b11110000000000000000000000000000 $
b1101110 1
#1027
0#
#1032
1#
b0 &
b10 B
0'
0(
b0 $
1.
#1037
0#
#1042
1#
b111000100110000000000000000 =
b1000100000 <
b1000110100 9
b111000100110000000000000000 >
1:
#1047
0#
#1052
1#
b10000111100000110101011001101000 >
b10000111100000110101011001101000 =
b1000100000 9
b1000100100 <
#1057
0#
#1062
1#
b0 B
b1000101000 <
b1000100100 9
b11000111100100010000000000001000 =
b11000111100100010000000000001000 >
#1067
0#
#1072
1#
b0 >
0:
b0 =
b10 B
b0 9
#1077
0#
#1082
1#
b1000101000 9
b10 0
b111110000010000000100011 >
b0 B
1:
b11110001000 *
b111110000010000000100011 =
b1000101100 <
#1087
0#
#1092
1#
b0 0
b100000 ,
0.
1'
b0 1
b0 9
b0 =
b10 B
b100000 +
b0 >
b11110001000 $
b0 *
0:
b1 %
#1097
0#
#1102
1#
b1000110000 <
1.
0'
1:
b0 +
b1000101100 9
b11110000011011110000100010000101 =
b0 $
b11110000011011110000100010000101 >
#1107
0#
#1112
1#
b111000101111111111101011111 >
b10 0
b10 /
b1000110100 <
12
b0 B
b111000101111111111101011111 =
b1000110000 9
b11110000000000000000000000000000 *
b1111 )
#1117
0#
#1122
1#
b1 )
b100000 1
b0 >
b1111 %
0.
b0 /
b0 0
b10 &
b0 *
b11110000000000000000000000000000 $
1'
1(
0:
b0 9
02
b0 =
#1127
0#
#1132
1#
1.
0'
b0 &
b0 $
0(
b10 B
#1137
0#
#1142
1#
b1000100000 <
b111000100110000000000000000 >
b111000100110000000000000000 =
b1000110100 9
1:
#1147
0#
#1152
1#
b10000111100000110101011001101000 >
b1000100100 <
b1000100000 9
b10000111100000110101011001101000 =
#1157
0#
#1162
1#
b11000111100100010000000000001000 =
b0 B
b11000111100100010000000000001000 >
b1000100100 9
b1000101000 <
#1167
0#
#1172
1#
b10 B
0:
b0 =
b0 9
b0 >
#1177
0#
#1182
1#
b111110000010000000100011 >
1:
b10 0
b1000101100 <
b10 )
b0 B
b1000101000 9
b11110001001 *
b111110000010000000100011 =
#1187
0#
#1192
1#
b0 =
b1 )
b0 0
0:
b0 1
b111010000000000 ,
b0 >
b10 %
b0 *
b10 B
1'
0.
b111010000000000 +
b0 9
b11110001001 $
#1197
0#
#1202
1#
b0 $
b11110000011011110000100010000101 >
1:
b11110000011011110000100010000101 =
b1000110000 <
b1000101100 9
0'
b0 +
1.
#1207
0#
#1212
1#
b111000101111111111101011111 =
b111000101111111111101011111 >
b1111 )
b10 0
b10 /
b1000110100 <
12
b0 B
b11110000000000000000000000000000 *
b1000110000 9
#1217
0#
#1222
1#
b0 9
b0 0
b1110100 1
b0 >
0.
b11110000000000000000000000000000 $
b0 =
b1 )
0:
b0 *
02
b1111 %
b0 /
1'
b10 &
1(
#1227
0#
#1232
1#
0(
1.
b0 $
b0 &
0'
b10 B
#1237
0#
#1242
1#
b111000100110000000000000000 >
b1000110100 9
b111000100110000000000000000 =
1:
b1000100000 <
#1247
0#
#1252
1#
b1000100100 <
b1000100000 9
b10000111100000110101011001101000 >
b10000111100000110101011001101000 =
#1257
0#
#1262
1#
b11000111100100010000000000001000 =
b1000100100 9
b0 B
b1000101000 <
b11000111100100010000000000001000 >
#1267
0#
#1272
1#
b0 >
b10 B
b0 =
b0 9
0:
#1277
0#
#1282
1#
1:
b111110000010000000100011 =
b100 )
b111110000010000000100011 >
b10 0
b0 B
b1000101000 9
b1000101100 <
b11110001010 *
#1287
0#
#1292
1#
b0 *
b0 0
b1 )
b0 =
0:
0.
b0 1
b0 >
b11100100000000000000000 ,
b0 9
b11100100000000000000000 +
b10 B
1'
b11110001010 $
b100 %
#1297
0#
#1302
1#
b11110000011011110000100010000101 >
1:
b11110000011011110000100010000101 =
1.
b0 $
b0 +
b1000110000 <
b1000101100 9
0'
#1307
0#
#1312
1#
b111000101111111111101011111 =
b111000101111111111101011111 >
b10 0
b11110000000000000000000000000000 *
b1111 )
b1000110000 9
12
b1000110100 <
b0 B
b10 /
#1317
0#
#1322
1#
b0 /
b0 *
b1111 %
b0 0
b0 >
1'
b0 =
0:
b1110010 1
1(
b1 )
0.
b11110000000000000000000000000000 $
b0 9
b10 &
02
#1327
0#
#1332
1#
0'
b0 &
b10 B
0(
1.
b0 $
#1337
0#
#1342
1#
b111000100110000000000000000 >
1:
b111000100110000000000000000 =
b1000110100 9
b1000100000 <
#1347
0#
#1352
1#
b1000100100 <
b10000111100000110101011001101000 >
b1000100000 9
b10000111100000110101011001101000 =
#1357
0#
#1362
1#
b11000111100100010000000000001000 =
b1000101000 <
b1000100100 9
b11000111100100010000000000001000 >
b0 B
#1367
0#
#1372
1#
b10 B
b0 =
0:
b0 >
b0 9
#1377
0#
#1382
1#
b1000101000 9
b10 0
b11110001011 *
b111110000010000000100011 =
b0 B
b111110000010000000100011 >
b1000 )
1:
b1000101100 <
#1387
0#
#1392
1#
b0 =
b0 1
b0 9
b11110001011 $
b1000 %
b0 *
b0 0
0:
b10 B
b1100001000000000000000000000000 +
1'
b1100001000000000000000000000000 ,
b1 )
0.
b0 >
#1397
0#
#1402
1#
b11110000011011110000100010000101 >
b1000110000 <
b1000101100 9
b11110000011011110000100010000101 =
b0 $
1.
b0 +
1:
0'
#1407
0#
#1412
1#
b111000101111111111101011111 =
b11110000000000000000000000000000 *
b1000110100 <
b10 /
b111000101111111111101011111 >
b1000110000 9
12
b10 0
b0 B
b1111 )
#1417
0#
#1422
1#
b1 )
b0 9
1'
b0 *
b1100001 1
b0 =
b0 >
b0 /
b1111 %
02
0.
b10 &
0:
b11110000000000000000000000000000 $
b0 0
1(
#1427
0#
#1432
1#
0(
0'
b0 &
b10 B
1.
b0 $
#1437
0#
#1442
1#
b1000100000 <
b1000110100 9
b111000100110000000000000000 >
b111000100110000000000000000 =
1:
#1447
0#
#1452
1#
b10000111100000110101011001101000 >
b1000100000 9
b1000100100 <
b10000111100000110101011001101000 =
#1457
0#
#1462
1#
b11000111100100010000000000001000 =
b1000100100 9
b11000111100100010000000000001000 >
b1000101000 <
b0 B
#1467
0#
#1472
1#
b10 B
0:
b0 9
b0 =
b0 >
#1477
0#
#1482
1#
b111110000010000000100011 >
b1000101000 9
b11110001100 *
1:
b0 B
b111110000010000000100011 =
b10 0
b1000101100 <
#1487
0#
#1492
1#
0:
b0 >
b11110001100 $
b0 *
b0 1
b0 9
b0 0
b10 B
b1 %
1'
b0 =
0.
b1110000 +
b1110000 ,
#1497
0#
#1502
1#
b1000110000 <
1:
b11110000011011110000100010000101 >
b0 $
b0 +
b1000101100 9
1.
0'
b11110000011011110000100010000101 =
#1507
0#
#1512
1#
b111000101111111111101011111 =
b111000101111111111101011111 >
b10 /
b1111 )
b11110000000000000000000000000000 *
b1000110100 <
b0 B
b10 0
12
b1000110000 9
#1517
0#
#1522
1#
b0 9
b0 *
b1110000 1
b0 >
b0 =
1(
b1 )
0:
b0 /
02
b11110000000000000000000000000000 $
b10 &
1'
b0 0
b1111 %
0.
#1527
0#
#1532
1#
1.
0(
b0 $
b10 B
b0 &
0'
#1537
0#
#1542
1#
1:
b111000100110000000000000000 >
b1000110100 9
b111000100110000000000000000 =
b1000100000 <
#1547
0#
#1552
1#
b1000100100 <
b1000100000 9
b10000111100000110101011001101000 >
b10000111100000110101011001101000 =
#1557
0#
#1562
1#
b11000111100100010000000000001000 =
b1000100100 9
b1000101000 <
b11000111100100010000000000001000 >
b0 B
#1567
0#
#1572
1#
b10 B
b0 9
0:
b0 =
b0 >
#1577
0#
#1582
1#
b111110000010000000100011 >
1:
b0 B
b11110001101 *
b1000101000 9
b10 )
b111110000010000000100011 =
b1000101100 <
b10 0
#1587
0#
#1592
1#
b0 0
b0 9
1'
0:
b0 1
b0 ,
b0 >
b0 *
0.
b10 B
b10 %
b0 =
b1 )
b11110001101 $
#1597
0#
#1602
1#
b0 $
1.
1:
b1000101100 9
0'
b11110000011011110000100010000101 >
b1000110000 <
b11110000011011110000100010000101 =
#1607
0#
#1612
1#
b111000101111111111101011111 =
b1000110000 9
b1000110100 <
b111000101111111111101011111 >
#1617
0#
#1622
1#
b111000100110000000000000000 >
b111000100110000000000000000 =
b1000111000 <
b1000110100 9
b0 B
#1627
0#
#1632
1#
b10 B
0:
b0 >
b0 9
b0 =
#1637
0#
#1642
1#
b11000011000100010110011111100111 =
1:
b0 B
b1000111000 9
b11000011000100010110011111100111 >
b1000111100 <
#1647
0#
#1652
1#
0:
b0 =
b0 >
b0 9
b10 B
#1657
0#
#1662
1#
b1001000000 <
1:
b1000111100 9
b100111011100111000011100000010 >
b100111011100111000011100000010 =
#1667
0#
#1672
1#
b1010011011000110011010000100000 =
b0 B
b1001000100 <
b1010011011000110011010000100000 >
b1001000000 9
#1677
0#
#1682
1#
b0 9
b10 B
b0 =
b0 >
b100010110000 <
0:
#1687
0#
#1692
1#
1:
b100010110000 9
b100010110100 <
b1000000000010100010011 >
b1000000000010100010011 =
#1697
0#
#1702
1#
b10101011100000000001100011 =
b10101011100000000001100011 >
b100010111000 <
b100010110100 9
#1707
0#
#1712
1#
b100010111000 9
b100010111100 <
b10000000000010100010011 >
b10000000000010100010011 =
#1717
0#
#1722
1#
b101011100000110001100011 =
b101011100000110001100011 >
b100011000000 <
b100010111100 9
#1727
0#
#1732
1#
b100011000000 9
b100011000100 <
b10100000000010100010011 >
b10100000000010100010011 =
#1737
0#
#1742
1#
b101011100000100001100011 =
b101011100000100001100011 >
b100011001000 <
b100011000100 9
#1747
0#
#1752
1#
b100011001000 9
b100011001100 <
b11000000000010100010011 >
b11000000000010100010011 =
#1757
0#
#1762
1#
b101011100000010001100011 =
b101011100000010001100011 >
b100011010000 <
b100011001100 9
#1767
0#
#1772
1#
b100011010000 9
b100011010100 <
b11111100000111111111000001101111 >
b11111100000111111111000001101111 =
#1777
0#
#1782
1#
b11111010000000110001111011100011 =
b11111010000000110001111011100011 >
b100011011000 <
b100011010100 9
#1787
0#
#1792
1#
b100011011000 9
b100010010000 <
b10110010011 >
b10110010011 =
#1797
0#
#1802
1#
b1111111100000000000000001111 =
b1111111100000000000000001111 >
b100010010100 <
b100010010000 9
#1807
0#
#1812
1#
b100010010100 9
b100010011000 <
b11100000010110010011 >
b11100000010110010011 =
#1817
0#
#1822
1#
b100000000010100010011 =
b100000000010100010011 >
b100010011100 <
b100010011000 9
#1827
0#
#1832
1#
b100010011100 9
b100010100000 <
b1110011 >
b1110011 =
#1837
0#
#1842
1#
b1111111100000000000000001111 =
b1111111100000000000000001111 >
b100010100100 <
b100010100000 9
#1847
0#
#1852
1#
b100010100100 9
b10000000000 <
b11100000010110010011 >
b11100000010110010011 =
#1857
0#
#1862
1#
b11110001010000000010010101110011 =
b11110001010000000010010101110011 >
b10000000100 <
b10000000000 9
#1867
0#
#1872
1#
b10000000100 9
b10000001000 <
b1001110000000011110000100000001 >
b1001110000000011110000100000001 =
#1877
0#
#1882
1#
b1010010111 =
b0 B
b1010010111 >
b10000001100 <
b10000001000 9
#1887
0#
#1892
1#
b0 9
b0 =
0:
b0 >
b10 B
#1897
0#
#1902
1#
b11011111100000101000001010010011 =
b10000001100 9
b11011111100000101000001010010011 >
1:
b10000010000 <
#1907
0#
#1912
1#
b10000010100 <
b110000010100101001000001110011 =
b110000010100101001000001110011 >
b10000010000 9
#1917
0#
#1922
1#
b10000010100 9
b10000011000 <
b101011111100100010100000101 >
b101011111100100010100000101 =
#1927
0#
#1932
1#
b1010100100001100011 =
b0 B
b10000011000 9
b1010100100001100011 >
b10000011100 <
#1937
0#
#1942
1#
b10 B
b0 =
b0 >
b0 9
0:
#1947
0#
#1952
1#
1:
b10000100000 <
b10000011100 9
b1111111100000000000000001111 >
b1111111100000000000000001111 =
#1957
0#
#1962
1#
b1000101000000011000010111110010 =
b1000101000000011000010111110010 >
b10000100000 9
b10000101000 <
#1967
0#
#1972
1#
b10000101100 <
b10000101000 9
b1010010011 >
b1010010011 =
#1977
0#
#1982
1#
b101000111101100011 =
b101000111101100011 >
b10000101100 9
b10000110000 <
#1987
0#
#1992
1#
b10000110100 <
b10000110000 9
b10000010100101001000001110011 >
b10000010100101001000001110011 =
#1997
0#
#2002
1#
b10000010100100110110001010101101 =
b10000010100100110110001010101101 >
b10000110100 9
b10001001000 <
#2007
0#
#2012
1#
b10001001100 <
b10001001000 9
b1010000011100111110000000111111 >
b1010000011100111110000000111111 =
#2017
0#
#2022
1#
b1100101000010010011000000000000 =
b0 B
b1100101000010010011000000000000 >
b10001001100 9
b10001010000 <
#2027
0#
#2032
1#
0:
b0 =
b0 9
b0 >
b10 B
#2037
0#
#2042
1#
b0 B
b10001010100 <
1:
b10000000000001010000010100010011 >
b10001010000 9
b10000000000001010000010100010011 =
#2047
0#
#2052
1#
b0 =
b10 B
b0 9
b0 >
0:
#2057
0#
#2062
1#
1:
b10001011000 <
b110000000001010010000001110011 =
b110000000001010010000001110011 >
b10001010100 9
#2067
0#
#2072
1#
b10001011000 9
b10001011100 <
b1010010111 >
b1010010111 =
#2077
0#
#2082
1#
b110011011000101000001010010011 =
b10001011100 9
b110011011000101000001010010011 >
b10001100000 <
b0 B
#2087
0#
#2092
1#
b10 B
b0 =
0:
b0 >
b0 9
#2097
0#
#2102
1#
b10001100000 9
b110100000100101001000001110011 =
b110100000100101001000001110011 >
1:
b10001100100 <
#2107
0#
#2112
1#
b10001101000 <
b10001100100 9
b11110001010000000010010101110011 >
b11110001010000000010010101110011 =
#2117
0#
#2122
1#
b110000001000000000000001110011 =
b10001101100 <
b110000001000000000000001110011 >
b10001101000 9
#2127
0#
#2132
1#
b10001101100 9
b0 =
b0 >
b10001110000 <
#2137
0#
#2142
1#
b10001110100 <
b10001110000 9
b0 B
#2147
0#
#2152
1#
b10 B
b0 9
b11110001100 <
0:
#2157
0#
#2162
1#
1:
b11110001100 9
b11110010000 <
b10000000001110000 >
b10000000001110000 =
#2167
0#
#2172
1#
b1000000000111000010011 =
b1000000000111000010011 >
b11110010100 <
b11110010000 9
#2177
0#
#2182
1#
b11110010100 9
b11110011000 <
b1100010011 >
b1100010011 =
#2187
0#
#2192
1#
b1010010111 =
b1010010111 >
b11110011100 <
b11110011000 9
#2197
0#
#2202
1#
b11110011100 9
b11110100000 <
b110000101000001010010011 >
b110000101000001010010011 =
#2207
0#
